﻿-d:RELEASE
-d:TRACE
-d:NET46
-nowarn:CS1701
-nowarn:CS1702
-nowarn:CS1705
-platform:x64
-optimize
-debug:full
-nostdlib
-nologo
"E:\Projects\RFC\trunk\Src\Counterparties\obj\Release\net46\dotnet-compile.assemblyinfo.cs"
-out:"E:\Projects\RFC\trunk\Src\Counterparties\bin\Release\net46\Counterparties.exe"
-r:"C:\Users\nmg\.nuget\packages\Aspose.Cells\8.7.1\lib\net40\Aspose.Cells.dll"
-r:"C:\Users\nmg\.nuget\packages\AutoMapper\5.1.1\lib\net45\AutoMapper.dll"
-r:"C:\Users\nmg\.nuget\packages\Dapper\1.50.1\lib\net451\Dapper.dll"
-r:"C:\Users\nmg\.nuget\packages\Dapper.SqlBuilder\1.50.0\lib\net45\Dapper.SqlBuilder.dll"
-r:"C:\Users\nmg\.nuget\packages\EntityFramework\6.1.3\lib\net45\EntityFramework.SqlServer.dll"
-r:"C:\Users\nmg\.nuget\packages\EntityFramework\6.1.3\lib\net45\EntityFramework.dll"
-r:"C:\Users\nmg\.nuget\packages\EntityFramework.DynamicFilters\2.3.0\lib\net40\EntityFramework.DynamicFilters.dll"
-r:"C:\Users\nmg\.nuget\packages\Microsoft.AspNetCore.Antiforgery\1.0.0\lib\net451\Microsoft.AspNetCore.Antiforgery.dll"
-r:"C:\Users\nmg\.nuget\packages\Microsoft.AspNetCore.Authentication\1.0.0\lib\net451\Microsoft.AspNetCore.Authentication.dll"
-r:"C:\Users\nmg\.nuget\packages\Microsoft.AspNetCore.Authentication.Cookies\1.0.0\lib\net451\Microsoft.AspNetCore.Authentication.Cookies.dll"
-r:"C:\Users\nmg\.nuget\packages\Microsoft.AspNetCore.Authorization\1.0.0\lib\net451\Microsoft.AspNetCore.Authorization.dll"
-r:"C:\Users\nmg\.nuget\packages\Microsoft.AspNetCore.Cors\1.0.0\lib\net451\Microsoft.AspNetCore.Cors.dll"
-r:"C:\Users\nmg\.nuget\packages\Microsoft.AspNetCore.Cryptography.Internal\1.0.0\lib\net451\Microsoft.AspNetCore.Cryptography.Internal.dll"
-r:"C:\Users\nmg\.nuget\packages\Microsoft.AspNetCore.Cryptography.KeyDerivation\1.0.0\lib\net451\Microsoft.AspNetCore.Cryptography.KeyDerivation.dll"
-r:"C:\Users\nmg\.nuget\packages\Microsoft.AspNetCore.DataProtection\1.0.0\lib\net451\Microsoft.AspNetCore.DataProtection.dll"
-r:"C:\Users\nmg\.nuget\packages\Microsoft.AspNetCore.DataProtection.Abstractions\1.0.0\lib\net451\Microsoft.AspNetCore.DataProtection.Abstractions.dll"
-r:"C:\Users\nmg\.nuget\packages\Microsoft.AspNetCore.Diagnostics.Abstractions\1.0.0\lib\netstandard1.0\Microsoft.AspNetCore.Diagnostics.Abstractions.dll"
-r:"C:\Users\nmg\.nuget\packages\Microsoft.AspNetCore.Hosting\1.0.0\lib\net451\Microsoft.AspNetCore.Hosting.dll"
-r:"C:\Users\nmg\.nuget\packages\Microsoft.AspNetCore.Hosting.Abstractions\1.0.0\lib\net451\Microsoft.AspNetCore.Hosting.Abstractions.dll"
-r:"C:\Users\nmg\.nuget\packages\Microsoft.AspNetCore.Hosting.Server.Abstractions\1.0.0\lib\net451\Microsoft.AspNetCore.Hosting.Server.Abstractions.dll"
-r:"C:\Users\nmg\.nuget\packages\Microsoft.AspNetCore.Html.Abstractions\1.0.0\lib\netstandard1.0\Microsoft.AspNetCore.Html.Abstractions.dll"
-r:"C:\Users\nmg\.nuget\packages\Microsoft.AspNetCore.Http\1.0.0\lib\net451\Microsoft.AspNetCore.Http.dll"
-r:"C:\Users\nmg\.nuget\packages\Microsoft.AspNetCore.Http.Abstractions\1.0.0\lib\net451\Microsoft.AspNetCore.Http.Abstractions.dll"
-r:"C:\Users\nmg\.nuget\packages\Microsoft.AspNetCore.Http.Extensions\1.0.0\lib\net451\Microsoft.AspNetCore.Http.Extensions.dll"
-r:"C:\Users\nmg\.nuget\packages\Microsoft.AspNetCore.Http.Features\1.0.0\lib\net451\Microsoft.AspNetCore.Http.Features.dll"
-r:"C:\Users\nmg\.nuget\packages\Microsoft.AspNetCore.HttpOverrides\1.0.0\lib\net451\Microsoft.AspNetCore.HttpOverrides.dll"
-r:"C:\Users\nmg\.nuget\packages\Microsoft.AspNetCore.Identity\1.0.0\lib\net451\Microsoft.AspNetCore.Identity.dll"
-r:"C:\Users\nmg\.nuget\packages\Microsoft.AspNetCore.JsonPatch\1.0.0\lib\netstandard1.1\Microsoft.AspNetCore.JsonPatch.dll"
-r:"C:\Users\nmg\.nuget\packages\Microsoft.AspNetCore.Localization\1.0.0\lib\net451\Microsoft.AspNetCore.Localization.dll"
-r:"C:\Users\nmg\.nuget\packages\Microsoft.AspNetCore.Mvc\1.0.0\lib\net451\Microsoft.AspNetCore.Mvc.dll"
-r:"C:\Users\nmg\.nuget\packages\Microsoft.AspNetCore.Mvc.Abstractions\1.0.0\lib\net451\Microsoft.AspNetCore.Mvc.Abstractions.dll"
-r:"C:\Users\nmg\.nuget\packages\Microsoft.AspNetCore.Mvc.ApiExplorer\1.0.0\lib\net451\Microsoft.AspNetCore.Mvc.ApiExplorer.dll"
-r:"C:\Users\nmg\.nuget\packages\Microsoft.AspNetCore.Mvc.Core\1.0.0\lib\net451\Microsoft.AspNetCore.Mvc.Core.dll"
-r:"C:\Users\nmg\.nuget\packages\Microsoft.AspNetCore.Mvc.Cors\1.0.0\lib\net451\Microsoft.AspNetCore.Mvc.Cors.dll"
-r:"C:\Users\nmg\.nuget\packages\Microsoft.AspNetCore.Mvc.DataAnnotations\1.0.0\lib\net451\Microsoft.AspNetCore.Mvc.DataAnnotations.dll"
-r:"C:\Users\nmg\.nuget\packages\Microsoft.AspNetCore.Mvc.Formatters.Json\1.0.0\lib\net451\Microsoft.AspNetCore.Mvc.Formatters.Json.dll"
-r:"C:\Users\nmg\.nuget\packages\Microsoft.AspNetCore.Mvc.Localization\1.0.0\lib\net451\Microsoft.AspNetCore.Mvc.Localization.dll"
-r:"C:\Users\nmg\.nuget\packages\Microsoft.AspNetCore.Mvc.Razor\1.0.0\lib\net451\Microsoft.AspNetCore.Mvc.Razor.dll"
-r:"C:\Users\nmg\.nuget\packages\Microsoft.AspNetCore.Mvc.Razor.Host\1.0.0\lib\net451\Microsoft.AspNetCore.Mvc.Razor.Host.dll"
-r:"C:\Users\nmg\.nuget\packages\Microsoft.AspNetCore.Mvc.TagHelpers\1.0.0\lib\net451\Microsoft.AspNetCore.Mvc.TagHelpers.dll"
-r:"C:\Users\nmg\.nuget\packages\Microsoft.AspNetCore.Mvc.ViewFeatures\1.0.0\lib\net451\Microsoft.AspNetCore.Mvc.ViewFeatures.dll"
-r:"C:\Users\nmg\.nuget\packages\Microsoft.AspNetCore.Razor\1.0.0\lib\net451\Microsoft.AspNetCore.Razor.dll"
-r:"C:\Users\nmg\.nuget\packages\Microsoft.AspNetCore.Razor.Runtime\1.0.0\lib\net451\Microsoft.AspNetCore.Razor.Runtime.dll"
-r:"C:\Users\nmg\.nuget\packages\Microsoft.AspNetCore.Routing\1.0.0\lib\net451\Microsoft.AspNetCore.Routing.dll"
-r:"C:\Users\nmg\.nuget\packages\Microsoft.AspNetCore.Routing.Abstractions\1.0.0\lib\net451\Microsoft.AspNetCore.Routing.Abstractions.dll"
-r:"C:\Users\nmg\.nuget\packages\Microsoft.AspNetCore.Server.IISIntegration\1.0.0\lib\net451\Microsoft.AspNetCore.Server.IISIntegration.dll"
-r:"C:\Users\nmg\.nuget\packages\Microsoft.AspNetCore.Server.Kestrel\1.0.0\lib\net451\Microsoft.AspNetCore.Server.Kestrel.dll"
-r:"C:\Users\nmg\.nuget\packages\Microsoft.AspNetCore.StaticFiles\1.0.0\lib\net451\Microsoft.AspNetCore.StaticFiles.dll"
-r:"C:\Users\nmg\.nuget\packages\Microsoft.AspNetCore.WebUtilities\1.0.0\lib\net451\Microsoft.AspNetCore.WebUtilities.dll"
-r:"C:\Users\nmg\.nuget\packages\Microsoft.CodeAnalysis.Common\1.3.0\lib\net45\Microsoft.CodeAnalysis.dll"
-r:"C:\Users\nmg\.nuget\packages\Microsoft.CodeAnalysis.CSharp\1.3.0\lib\net45\Microsoft.CodeAnalysis.CSharp.dll"
-r:"C:\Program Files (x86)\Reference Assemblies\Microsoft\Framework\.NETFramework\v4.6\Microsoft.CSharp.dll"
-r:"C:\Users\nmg\.nuget\packages\Microsoft.DotNet.InternalAbstractions\1.0.0\lib\net451\Microsoft.DotNet.InternalAbstractions.dll"
-r:"C:\Users\nmg\.nuget\packages\Microsoft.Extensions.Caching.Abstractions\1.0.0\lib\netstandard1.0\Microsoft.Extensions.Caching.Abstractions.dll"
-r:"C:\Users\nmg\.nuget\packages\Microsoft.Extensions.Caching.Memory\1.0.0\lib\net451\Microsoft.Extensions.Caching.Memory.dll"
-r:"C:\Users\nmg\.nuget\packages\Microsoft.Extensions.Configuration\1.0.0\lib\netstandard1.1\Microsoft.Extensions.Configuration.dll"
-r:"C:\Users\nmg\.nuget\packages\Microsoft.Extensions.Configuration.Abstractions\1.0.0\lib\netstandard1.0\Microsoft.Extensions.Configuration.Abstractions.dll"
-r:"C:\Users\nmg\.nuget\packages\Microsoft.Extensions.Configuration.Binder\1.0.0\lib\netstandard1.1\Microsoft.Extensions.Configuration.Binder.dll"
-r:"C:\Users\nmg\.nuget\packages\Microsoft.Extensions.Configuration.EnvironmentVariables\1.0.0\lib\net451\Microsoft.Extensions.Configuration.EnvironmentVariables.dll"
-r:"C:\Users\nmg\.nuget\packages\Microsoft.Extensions.Configuration.FileExtensions\1.0.0\lib\net451\Microsoft.Extensions.Configuration.FileExtensions.dll"
-r:"C:\Users\nmg\.nuget\packages\Microsoft.Extensions.Configuration.Json\1.0.0\lib\net451\Microsoft.Extensions.Configuration.Json.dll"
-r:"C:\Users\nmg\.nuget\packages\Microsoft.Extensions.Configuration.UserSecrets\1.0.0\lib\net451\Microsoft.Extensions.Configuration.UserSecrets.dll"
-r:"C:\Users\nmg\.nuget\packages\Microsoft.Extensions.DependencyInjection\1.0.0\lib\netstandard1.1\Microsoft.Extensions.DependencyInjection.dll"
-r:"C:\Users\nmg\.nuget\packages\Microsoft.Extensions.DependencyInjection.Abstractions\1.0.0\lib\netstandard1.0\Microsoft.Extensions.DependencyInjection.Abstractions.dll"
-r:"C:\Users\nmg\.nuget\packages\Microsoft.Extensions.DependencyModel\1.0.0\lib\net451\Microsoft.Extensions.DependencyModel.dll"
-r:"C:\Users\nmg\.nuget\packages\Microsoft.Extensions.FileProviders.Abstractions\1.0.0\lib\netstandard1.0\Microsoft.Extensions.FileProviders.Abstractions.dll"
-r:"C:\Users\nmg\.nuget\packages\Microsoft.Extensions.FileProviders.Composite\1.0.0\lib\netstandard1.0\Microsoft.Extensions.FileProviders.Composite.dll"
-r:"C:\Users\nmg\.nuget\packages\Microsoft.Extensions.FileProviders.Physical\1.0.0\lib\net451\Microsoft.Extensions.FileProviders.Physical.dll"
-r:"C:\Users\nmg\.nuget\packages\Microsoft.Extensions.FileSystemGlobbing\1.0.0\lib\net451\Microsoft.Extensions.FileSystemGlobbing.dll"
-r:"C:\Users\nmg\.nuget\packages\Microsoft.Extensions.Globalization.CultureInfoCache\1.0.0\lib\netstandard1.1\Microsoft.Extensions.Globalization.CultureInfoCache.dll"
-r:"C:\Users\nmg\.nuget\packages\Microsoft.Extensions.Localization\1.0.0\lib\net451\Microsoft.Extensions.Localization.dll"
-r:"C:\Users\nmg\.nuget\packages\Microsoft.Extensions.Localization.Abstractions\1.0.0\lib\netstandard1.0\Microsoft.Extensions.Localization.Abstractions.dll"
-r:"C:\Users\nmg\.nuget\packages\Microsoft.Extensions.Logging\1.0.0\lib\netstandard1.1\Microsoft.Extensions.Logging.dll"
-r:"C:\Users\nmg\.nuget\packages\Microsoft.Extensions.Logging.Abstractions\1.0.0\lib\netstandard1.1\Microsoft.Extensions.Logging.Abstractions.dll"
-r:"C:\Users\nmg\.nuget\packages\Microsoft.Extensions.Logging.Console\1.0.0\lib\net451\Microsoft.Extensions.Logging.Console.dll"
-r:"C:\Users\nmg\.nuget\packages\Microsoft.Extensions.Logging.Debug\1.0.0\lib\net451\Microsoft.Extensions.Logging.Debug.dll"
-r:"C:\Users\nmg\.nuget\packages\Microsoft.Extensions.ObjectPool\1.0.0\lib\net451\Microsoft.Extensions.ObjectPool.dll"
-r:"C:\Users\nmg\.nuget\packages\Microsoft.Extensions.Options\1.0.0\lib\netstandard1.0\Microsoft.Extensions.Options.dll"
-r:"C:\Users\nmg\.nuget\packages\Microsoft.Extensions.Options.ConfigurationExtensions\1.0.0\lib\netstandard1.1\Microsoft.Extensions.Options.ConfigurationExtensions.dll"
-r:"C:\Users\nmg\.nuget\packages\Microsoft.Extensions.PlatformAbstractions\1.0.0\lib\net451\Microsoft.Extensions.PlatformAbstractions.dll"
-r:"C:\Users\nmg\.nuget\packages\Microsoft.Extensions.Primitives\1.0.0\lib\netstandard1.0\Microsoft.Extensions.Primitives.dll"
-r:"C:\Users\nmg\.nuget\packages\Microsoft.Extensions.WebEncoders\1.0.0\lib\netstandard1.0\Microsoft.Extensions.WebEncoders.dll"
-r:"C:\Users\nmg\.nuget\packages\Microsoft.Net.Http.Headers\1.0.0\lib\netstandard1.1\Microsoft.Net.Http.Headers.dll"
-r:"C:\Users\nmg\.nuget\packages\Newtonsoft.Json\9.0.1\lib\net45\Newtonsoft.Json.dll"
-r:"C:\Users\nmg\.nuget\packages\NLog\4.3.5\lib\net45\NLog.dll"
-r:"C:\Users\nmg\.nuget\packages\System.AppContext\4.1.0\ref\net46\System.AppContext.dll"
-r:"C:\Users\nmg\.nuget\packages\System.Buffers\4.0.0\lib\netstandard1.1\System.Buffers.dll"
-r:"C:\Program Files (x86)\Reference Assemblies\Microsoft\Framework\.NETFramework\v4.6\Facades\System.Collections.dll"
-r:"C:\Program Files (x86)\Reference Assemblies\Microsoft\Framework\.NETFramework\v4.6\Facades\System.Collections.Concurrent.dll"
-r:"C:\Users\nmg\.nuget\packages\System.Collections.Immutable\1.2.0\lib\portable-net45+win8+wp8+wpa81\System.Collections.Immutable.dll"
-r:"C:\Program Files (x86)\Reference Assemblies\Microsoft\Framework\.NETFramework\v4.6\Facades\System.ComponentModel.dll"
-r:"C:\Program Files (x86)\Reference Assemblies\Microsoft\Framework\.NETFramework\v4.6\Facades\System.ComponentModel.Annotations.dll"
-r:"C:\Users\nmg\.nuget\packages\System.ComponentModel.Primitives\4.1.0\ref\net45\System.ComponentModel.Primitives.dll"
-r:"C:\Users\nmg\.nuget\packages\System.ComponentModel.TypeConverter\4.1.0\ref\net45\System.ComponentModel.TypeConverter.dll"
-r:"C:\Users\nmg\.nuget\packages\System.Console\4.0.0\ref\net46\System.Console.dll"
-r:"C:\Program Files (x86)\Reference Assemblies\Microsoft\Framework\.NETFramework\v4.6\Facades\System.Diagnostics.Contracts.dll"
-r:"C:\Program Files (x86)\Reference Assemblies\Microsoft\Framework\.NETFramework\v4.6\Facades\System.Diagnostics.Debug.dll"
-r:"C:\Users\nmg\.nuget\packages\System.Diagnostics.DiagnosticSource\4.0.0\lib\net46\System.Diagnostics.DiagnosticSource.dll"
-r:"C:\Program Files (x86)\Reference Assemblies\Microsoft\Framework\.NETFramework\v4.6\Facades\System.Diagnostics.Tools.dll"
-r:"C:\Program Files (x86)\Reference Assemblies\Microsoft\Framework\.NETFramework\v4.6\Facades\System.Dynamic.Runtime.dll"
-r:"C:\Program Files (x86)\Reference Assemblies\Microsoft\Framework\.NETFramework\v4.6\Facades\System.Globalization.dll"
-r:"C:\Program Files (x86)\Reference Assemblies\Microsoft\Framework\.NETFramework\v4.6\Facades\System.IO.dll"
-r:"C:\Users\nmg\.nuget\packages\System.IO.FileSystem\4.0.1\ref\net46\System.IO.FileSystem.dll"
-r:"C:\Users\nmg\.nuget\packages\System.IO.FileSystem.Primitives\4.0.1\ref\net46\System.IO.FileSystem.Primitives.dll"
-r:"C:\Program Files (x86)\Reference Assemblies\Microsoft\Framework\.NETFramework\v4.6\Facades\System.Linq.dll"
-r:"C:\Program Files (x86)\Reference Assemblies\Microsoft\Framework\.NETFramework\v4.6\Facades\System.Linq.Expressions.dll"
-r:"C:\Users\nmg\.nuget\packages\System.Numerics.Vectors\4.1.1\ref\net46\System.Numerics.Vectors.dll"
-r:"C:\Program Files (x86)\Reference Assemblies\Microsoft\Framework\.NETFramework\v4.6\Facades\System.Reflection.dll"
-r:"C:\Program Files (x86)\Reference Assemblies\Microsoft\Framework\.NETFramework\v4.6\Facades\System.Reflection.Extensions.dll"
-r:"C:\Users\nmg\.nuget\packages\System.Reflection.Metadata\1.3.0\lib\portable-net45+win8\System.Reflection.Metadata.dll"
-r:"C:\Program Files (x86)\Reference Assemblies\Microsoft\Framework\.NETFramework\v4.6\Facades\System.Reflection.Primitives.dll"
-r:"C:\Program Files (x86)\Reference Assemblies\Microsoft\Framework\.NETFramework\v4.6\Facades\System.Resources.ResourceManager.dll"
-r:"C:\Program Files (x86)\Reference Assemblies\Microsoft\Framework\.NETFramework\v4.6\Facades\System.Runtime.dll"
-r:"C:\Program Files (x86)\Reference Assemblies\Microsoft\Framework\.NETFramework\v4.6\Facades\System.Runtime.Extensions.dll"
-r:"C:\Program Files (x86)\Reference Assemblies\Microsoft\Framework\.NETFramework\v4.6\Facades\System.Runtime.Handles.dll"
-r:"C:\Program Files (x86)\Reference Assemblies\Microsoft\Framework\.NETFramework\v4.6\Facades\System.Runtime.InteropServices.dll"
-r:"C:\Users\nmg\.nuget\packages\System.Runtime.InteropServices.RuntimeInformation\4.0.0\ref\netstandard1.1\System.Runtime.InteropServices.RuntimeInformation.dll"
-r:"C:\Program Files (x86)\Reference Assemblies\Microsoft\Framework\.NETFramework\v4.6\Facades\System.Runtime.Numerics.dll"
-r:"C:\Users\nmg\.nuget\packages\System.Runtime.Serialization.Primitives\4.1.1\ref\net46\System.Runtime.Serialization.Primitives.dll"
-r:"C:\Users\nmg\.nuget\packages\System.Security.Cryptography.Algorithms\4.2.0\ref\net46\System.Security.Cryptography.Algorithms.dll"
-r:"C:\Users\nmg\.nuget\packages\System.Security.Cryptography.Encoding\4.0.0\ref\net46\System.Security.Cryptography.Encoding.dll"
-r:"C:\Users\nmg\.nuget\packages\System.Security.Cryptography.Primitives\4.0.0\ref\net46\System.Security.Cryptography.Primitives.dll"
-r:"C:\Users\nmg\.nuget\packages\System.Security.Cryptography.X509Certificates\4.1.0\ref\net46\System.Security.Cryptography.X509Certificates.dll"
-r:"C:\Program Files (x86)\Reference Assemblies\Microsoft\Framework\.NETFramework\v4.6\Facades\System.Text.Encoding.dll"
-r:"C:\Program Files (x86)\Reference Assemblies\Microsoft\Framework\.NETFramework\v4.6\Facades\System.Text.Encoding.Extensions.dll"
-r:"C:\Users\nmg\.nuget\packages\System.Text.Encodings.Web\4.0.0\lib\netstandard1.0\System.Text.Encodings.Web.dll"
-r:"C:\Program Files (x86)\Reference Assemblies\Microsoft\Framework\.NETFramework\v4.6\Facades\System.Threading.dll"
-r:"C:\Program Files (x86)\Reference Assemblies\Microsoft\Framework\.NETFramework\v4.6\Facades\System.Threading.Tasks.dll"
-r:"C:\Users\nmg\.nuget\packages\System.Threading.Tasks.Extensions\4.0.0\lib\portable-net45+win8+wp8+wpa81\System.Threading.Tasks.Extensions.dll"
-r:"C:\Program Files (x86)\Reference Assemblies\Microsoft\Framework\.NETFramework\v4.6\Facades\System.Threading.Tasks.Parallel.dll"
-r:"C:\Program Files (x86)\Reference Assemblies\Microsoft\Framework\.NETFramework\v4.6\Facades\System.Xml.ReaderWriter.dll"
-r:"C:\Program Files (x86)\Reference Assemblies\Microsoft\Framework\.NETFramework\v4.6\Facades\System.Xml.XDocument.dll"
-r:"E:\Projects\RFC\trunk\Src\GraphDiff\bin\Release\net46\GraphDiff.dll"
-r:"C:\Program Files (x86)\Reference Assemblies\Microsoft\Framework\.NETFramework\v4.6\System.Drawing.dll"
-r:"C:\Program Files (x86)\Reference Assemblies\Microsoft\Framework\.NETFramework\v4.6\mscorlib.dll"
-r:"C:\Program Files (x86)\Reference Assemblies\Microsoft\Framework\.NETFramework\v4.6\System.dll"
-r:"C:\Program Files (x86)\Reference Assemblies\Microsoft\Framework\.NETFramework\v4.6\System.Core.dll"
-r:"C:\Program Files (x86)\Reference Assemblies\Microsoft\Framework\.NETFramework\v4.6\System.Data.dll"
-r:"C:\Program Files (x86)\Reference Assemblies\Microsoft\Framework\.NETFramework\v4.6\System.Xml.dll"
-r:"C:\Program Files (x86)\Reference Assemblies\Microsoft\Framework\.NETFramework\v4.6\System.Xml.Linq.dll"
-r:"C:\Program Files (x86)\Reference Assemblies\Microsoft\Framework\.NETFramework\v4.6\System.Data.Linq.dll"
-r:"C:\Program Files (x86)\Reference Assemblies\Microsoft\Framework\.NETFramework\v4.6\System.ComponentModel.DataAnnotations.dll"
-r:"C:\Program Files (x86)\Reference Assemblies\Microsoft\Framework\.NETFramework\v4.6\System.Net.Http.dll"
-r:"C:\Program Files (x86)\Reference Assemblies\Microsoft\Framework\.NETFramework\v4.6\System.Security.dll"
-r:"C:\Program Files (x86)\Reference Assemblies\Microsoft\Framework\.NETFramework\v4.6\System.Numerics.dll"
-r:"C:\Program Files (x86)\Reference Assemblies\Microsoft\Framework\.NETFramework\v4.6\System.Runtime.Serialization.dll"
-r:"C:\Program Files (x86)\Reference Assemblies\Microsoft\Framework\.NETFramework\v4.6\System.Runtime.Caching.dll"
-resource:"E:\Projects\RFC\trunk\Src\Counterparties\obj\Release\net46\Counterpartiesdotnet-compile.deps.json",Counterparties.deps.json
-resource:"E:\Projects\RFC\trunk\Src\Counterparties\Properties\Aspose.Cells.lic",Counterparties.Properties.Aspose.Cells.lic
"E:\Projects\RFC\trunk\Src\EncryptedEnvironmentVariables\EncryptedEnvironmentProvider.cs"
"E:\Projects\RFC\trunk\Src\EncryptedEnvironmentVariables\EncryptedEnvironmentSource.cs"
"E:\Projects\RFC\trunk\Src\EncryptedEnvironmentVariables\EncryptedEnvironmentVariablesExtensions.cs"
"E:\Projects\RFC\trunk\Src\Counterparties\Program.cs"
"E:\Projects\RFC\trunk\Src\Counterparties\Startup.cs"
"E:\Projects\RFC\trunk\Src\Counterparties\Configuration\ConfigurationExtensions.cs"
"E:\Projects\RFC\trunk\Src\Counterparties\Configuration\IdentitySettings.cs"
"E:\Projects\RFC\trunk\Src\Counterparties\Configuration\MailSettings.cs"
"E:\Projects\RFC\trunk\Src\Counterparties\Configuration\Settings.cs"
"E:\Projects\RFC\trunk\Src\Counterparties\Controllers\ApiController.cs"
"E:\Projects\RFC\trunk\Src\Counterparties\Controllers\AuthenticationController.cs"
"E:\Projects\RFC\trunk\Src\Counterparties\Controllers\CounterpartyController.cs"
"E:\Projects\RFC\trunk\Src\Counterparties\Controllers\DashboardController.cs"
"E:\Projects\RFC\trunk\Src\Counterparties\Controllers\DerogationController.cs"
"E:\Projects\RFC\trunk\Src\Counterparties\Controllers\EntityController.cs"
"E:\Projects\RFC\trunk\Src\Counterparties\Controllers\HomeController.cs"
"E:\Projects\RFC\trunk\Src\Counterparties\Controllers\IdNamePair.cs"
"E:\Projects\RFC\trunk\Src\Counterparties\Controllers\LimitController.cs"
"E:\Projects\RFC\trunk\Src\Counterparties\Controllers\MonitoringController.cs"
"E:\Projects\RFC\trunk\Src\Counterparties\Controllers\PasswordController.cs"
"E:\Projects\RFC\trunk\Src\Counterparties\Controllers\RegionController.cs"
"E:\Projects\RFC\trunk\Src\Counterparties\Controllers\RenaultGradeController.cs"
"E:\Projects\RFC\trunk\Src\Counterparties\Controllers\TestController.cs"
"E:\Projects\RFC\trunk\Src\Counterparties\Controllers\UserController.cs"
"E:\Projects\RFC\trunk\Src\Counterparties\Controllers\UtilizationController.cs"
"E:\Projects\RFC\trunk\Src\Counterparties\Controllers\UtilizationsUploadController.cs"
"E:\Projects\RFC\trunk\Src\Counterparties\Controllers\ValidationController.cs"
"E:\Projects\RFC\trunk\Src\Counterparties\Data\Audit.cs"
"E:\Projects\RFC\trunk\Src\Counterparties\Data\Database.cs"
"E:\Projects\RFC\trunk\Src\Counterparties\Data\IChange.cs"
"E:\Projects\RFC\trunk\Src\Counterparties\Data\ILastChanged.cs"
"E:\Projects\RFC\trunk\Src\Counterparties\Data\ISoftDelete.cs"
"E:\Projects\RFC\trunk\Src\Counterparties\Data\RfcDbConfig.cs"
"E:\Projects\RFC\trunk\Src\Counterparties\Data\RfcDbContext.cs"
"E:\Projects\RFC\trunk\Src\Counterparties\Data\RowVersionConvention.cs"
"E:\Projects\RFC\trunk\Src\Counterparties\Data\SqlExceptionExtensions.cs"
"E:\Projects\RFC\trunk\Src\Counterparties\Data\Identity\RoleStore.cs"
"E:\Projects\RFC\trunk\Src\Counterparties\Data\Identity\UserStore.cs"
"E:\Projects\RFC\trunk\Src\Counterparties\Data\OData\FilterParser.cs"
"E:\Projects\RFC\trunk\Src\Counterparties\Data\OData\ODataSql.cs"
"E:\Projects\RFC\trunk\Src\Counterparties\Data\Parsers\UtilizationsParser.cs"
"E:\Projects\RFC\trunk\Src\Counterparties\Data\Validation\BusinessDay.cs"
"E:\Projects\RFC\trunk\Src\Counterparties\Data\Validation\GreaterThanOrEqual.cs"
"E:\Projects\RFC\trunk\Src\Counterparties\Data\Validation\LaterThan.cs"
"E:\Projects\RFC\trunk\Src\Counterparties\Data\Validation\RequiredWhen.cs"
"E:\Projects\RFC\trunk\Src\Counterparties\Infrastructure\AddHeaderAttribute.cs"
"E:\Projects\RFC\trunk\Src\Counterparties\Infrastructure\ApplicationBuilderExtensions.cs"
"E:\Projects\RFC\trunk\Src\Counterparties\Infrastructure\AutoMapperConfig.cs"
"E:\Projects\RFC\trunk\Src\Counterparties\Infrastructure\DownloadAttribute.cs"
"E:\Projects\RFC\trunk\Src\Counterparties\Infrastructure\Enumerable.cs"
"E:\Projects\RFC\trunk\Src\Counterparties\Infrastructure\Excel.cs"
"E:\Projects\RFC\trunk\Src\Counterparties\Infrastructure\ExcelFilter.cs"
"E:\Projects\RFC\trunk\Src\Counterparties\Infrastructure\KnownExceptionsFilter.cs"
"E:\Projects\RFC\trunk\Src\Counterparties\Infrastructure\Mail.cs"
"E:\Projects\RFC\trunk\Src\Counterparties\Infrastructure\NotNullAttribute.cs"
"E:\Projects\RFC\trunk\Src\Counterparties\Infrastructure\Json\CounterpartyConverter.cs"
"E:\Projects\RFC\trunk\Src\Counterparties\Infrastructure\Json\CountriesConverter.cs"
"E:\Projects\RFC\trunk\Src\Counterparties\Infrastructure\Json\EntitiesConverter.cs"
"E:\Projects\RFC\trunk\Src\Counterparties\Infrastructure\Security\ClaimPolicyProvider.cs"
"E:\Projects\RFC\trunk\Src\Counterparties\Infrastructure\Security\Claims.cs"
"E:\Projects\RFC\trunk\Src\Counterparties\Infrastructure\Security\MemoryCacheTicketStore.cs"
"E:\Projects\RFC\trunk\Src\Counterparties\Infrastructure\Security\Operations.cs"
"E:\Projects\RFC\trunk\Src\Counterparties\Infrastructure\Security\PermissionAttribute.cs"
"E:\Projects\RFC\trunk\Src\Counterparties\Infrastructure\Security\UserGroup.cs"
"E:\Projects\RFC\trunk\Src\Counterparties\Model\Counterparty.cs"
"E:\Projects\RFC\trunk\Src\Counterparties\Model\Country.cs"
"E:\Projects\RFC\trunk\Src\Counterparties\Model\Derogation.cs"
"E:\Projects\RFC\trunk\Src\Counterparties\Model\Entity.cs"
"E:\Projects\RFC\trunk\Src\Counterparties\Model\EntityUtilization.cs"
"E:\Projects\RFC\trunk\Src\Counterparties\Model\Enums.cs"
"E:\Projects\RFC\trunk\Src\Counterparties\Model\FitchRating.cs"
"E:\Projects\RFC\trunk\Src\Counterparties\Model\Limit.cs"
"E:\Projects\RFC\trunk\Src\Counterparties\Model\LoginAudit.cs"
"E:\Projects\RFC\trunk\Src\Counterparties\Model\MoodysRating.cs"
"E:\Projects\RFC\trunk\Src\Counterparties\Model\PreviousPassword.cs"
"E:\Projects\RFC\trunk\Src\Counterparties\Model\Region.cs"
"E:\Projects\RFC\trunk\Src\Counterparties\Model\RenaultGrade.cs"
"E:\Projects\RFC\trunk\Src\Counterparties\Model\SPRating.cs"
"E:\Projects\RFC\trunk\Src\Counterparties\Model\Upload.cs"
"E:\Projects\RFC\trunk\Src\Counterparties\Model\User.cs"
"E:\Projects\RFC\trunk\Src\Counterparties\Model\Utilization.cs"
"E:\Projects\RFC\trunk\Src\Counterparties\Spa\SpaRouteConstraint.cs"
"E:\Projects\RFC\trunk\Src\Counterparties\Spa\SpaRouteExtensions.cs"
