--temp-output:E:\Projects\RFC\trunk\Src\Counterparties\obj\Release\net46\
--out:E:\Projects\RFC\trunk\Src\Counterparties\bin\Release\net46\Counterparties.exe
--define:RELEASE
--define:TRACE
--define:NET46
--suppress-warning:CS1701
--suppress-warning:CS1702
--suppress-warning:CS1705
--platform:x64
--optimize:True
--emit-entry-point:True
--output-name:Counterparties
--file-version:0.3.0.0
--version:0.3.0.0
--informational-version:0.3.0-svn
--target-framework:.NETFramework,Version=v4.6
E:\Projects\RFC\trunk\Src\EncryptedEnvironmentVariables\EncryptedEnvironmentProvider.cs
E:\Projects\RFC\trunk\Src\EncryptedEnvironmentVariables\EncryptedEnvironmentSource.cs
E:\Projects\RFC\trunk\Src\EncryptedEnvironmentVariables\EncryptedEnvironmentVariablesExtensions.cs
--reference:C:\Users\nmg\.nuget\packages\Aspose.Cells\8.7.1\lib\net40\Aspose.Cells.dll
--reference:C:\Users\nmg\.nuget\packages\AutoMapper\5.1.1\lib\net45\AutoMapper.dll
--reference:C:\Users\nmg\.nuget\packages\Dapper\1.50.1\lib\net451\Dapper.dll
--reference:C:\Users\nmg\.nuget\packages\Dapper.SqlBuilder\1.50.0\lib\net45\Dapper.SqlBuilder.dll
--reference:C:\Users\nmg\.nuget\packages\EntityFramework\6.1.3\lib\net45\EntityFramework.SqlServer.dll
--reference:C:\Users\nmg\.nuget\packages\EntityFramework\6.1.3\lib\net45\EntityFramework.dll
--reference:C:\Users\nmg\.nuget\packages\EntityFramework.DynamicFilters\2.3.0\lib\net40\EntityFramework.DynamicFilters.dll
--reference:C:\Users\nmg\.nuget\packages\Microsoft.AspNetCore.Antiforgery\1.0.0\lib\net451\Microsoft.AspNetCore.Antiforgery.dll
--reference:C:\Users\nmg\.nuget\packages\Microsoft.AspNetCore.Authentication\1.0.0\lib\net451\Microsoft.AspNetCore.Authentication.dll
--reference:C:\Users\nmg\.nuget\packages\Microsoft.AspNetCore.Authentication.Cookies\1.0.0\lib\net451\Microsoft.AspNetCore.Authentication.Cookies.dll
--reference:C:\Users\nmg\.nuget\packages\Microsoft.AspNetCore.Authorization\1.0.0\lib\net451\Microsoft.AspNetCore.Authorization.dll
--reference:C:\Users\nmg\.nuget\packages\Microsoft.AspNetCore.Cors\1.0.0\lib\net451\Microsoft.AspNetCore.Cors.dll
--reference:C:\Users\nmg\.nuget\packages\Microsoft.AspNetCore.Cryptography.Internal\1.0.0\lib\net451\Microsoft.AspNetCore.Cryptography.Internal.dll
--reference:C:\Users\nmg\.nuget\packages\Microsoft.AspNetCore.Cryptography.KeyDerivation\1.0.0\lib\net451\Microsoft.AspNetCore.Cryptography.KeyDerivation.dll
--reference:C:\Users\nmg\.nuget\packages\Microsoft.AspNetCore.DataProtection\1.0.0\lib\net451\Microsoft.AspNetCore.DataProtection.dll
--reference:C:\Users\nmg\.nuget\packages\Microsoft.AspNetCore.DataProtection.Abstractions\1.0.0\lib\net451\Microsoft.AspNetCore.DataProtection.Abstractions.dll
--reference:C:\Users\nmg\.nuget\packages\Microsoft.AspNetCore.Diagnostics.Abstractions\1.0.0\lib\netstandard1.0\Microsoft.AspNetCore.Diagnostics.Abstractions.dll
--reference:C:\Users\nmg\.nuget\packages\Microsoft.AspNetCore.Hosting\1.0.0\lib\net451\Microsoft.AspNetCore.Hosting.dll
--reference:C:\Users\nmg\.nuget\packages\Microsoft.AspNetCore.Hosting.Abstractions\1.0.0\lib\net451\Microsoft.AspNetCore.Hosting.Abstractions.dll
--reference:C:\Users\nmg\.nuget\packages\Microsoft.AspNetCore.Hosting.Server.Abstractions\1.0.0\lib\net451\Microsoft.AspNetCore.Hosting.Server.Abstractions.dll
--reference:C:\Users\nmg\.nuget\packages\Microsoft.AspNetCore.Html.Abstractions\1.0.0\lib\netstandard1.0\Microsoft.AspNetCore.Html.Abstractions.dll
--reference:C:\Users\nmg\.nuget\packages\Microsoft.AspNetCore.Http\1.0.0\lib\net451\Microsoft.AspNetCore.Http.dll
--reference:C:\Users\nmg\.nuget\packages\Microsoft.AspNetCore.Http.Abstractions\1.0.0\lib\net451\Microsoft.AspNetCore.Http.Abstractions.dll
--reference:C:\Users\nmg\.nuget\packages\Microsoft.AspNetCore.Http.Extensions\1.0.0\lib\net451\Microsoft.AspNetCore.Http.Extensions.dll
--reference:C:\Users\nmg\.nuget\packages\Microsoft.AspNetCore.Http.Features\1.0.0\lib\net451\Microsoft.AspNetCore.Http.Features.dll
--reference:C:\Users\nmg\.nuget\packages\Microsoft.AspNetCore.HttpOverrides\1.0.0\lib\net451\Microsoft.AspNetCore.HttpOverrides.dll
--reference:C:\Users\nmg\.nuget\packages\Microsoft.AspNetCore.Identity\1.0.0\lib\net451\Microsoft.AspNetCore.Identity.dll
--reference:C:\Users\nmg\.nuget\packages\Microsoft.AspNetCore.JsonPatch\1.0.0\lib\netstandard1.1\Microsoft.AspNetCore.JsonPatch.dll
--reference:C:\Users\nmg\.nuget\packages\Microsoft.AspNetCore.Localization\1.0.0\lib\net451\Microsoft.AspNetCore.Localization.dll
--reference:C:\Users\nmg\.nuget\packages\Microsoft.AspNetCore.Mvc\1.0.0\lib\net451\Microsoft.AspNetCore.Mvc.dll
--reference:C:\Users\nmg\.nuget\packages\Microsoft.AspNetCore.Mvc.Abstractions\1.0.0\lib\net451\Microsoft.AspNetCore.Mvc.Abstractions.dll
--reference:C:\Users\nmg\.nuget\packages\Microsoft.AspNetCore.Mvc.ApiExplorer\1.0.0\lib\net451\Microsoft.AspNetCore.Mvc.ApiExplorer.dll
--reference:C:\Users\nmg\.nuget\packages\Microsoft.AspNetCore.Mvc.Core\1.0.0\lib\net451\Microsoft.AspNetCore.Mvc.Core.dll
--reference:C:\Users\nmg\.nuget\packages\Microsoft.AspNetCore.Mvc.Cors\1.0.0\lib\net451\Microsoft.AspNetCore.Mvc.Cors.dll
--reference:C:\Users\nmg\.nuget\packages\Microsoft.AspNetCore.Mvc.DataAnnotations\1.0.0\lib\net451\Microsoft.AspNetCore.Mvc.DataAnnotations.dll
--reference:C:\Users\nmg\.nuget\packages\Microsoft.AspNetCore.Mvc.Formatters.Json\1.0.0\lib\net451\Microsoft.AspNetCore.Mvc.Formatters.Json.dll
--reference:C:\Users\nmg\.nuget\packages\Microsoft.AspNetCore.Mvc.Localization\1.0.0\lib\net451\Microsoft.AspNetCore.Mvc.Localization.dll
--reference:C:\Users\nmg\.nuget\packages\Microsoft.AspNetCore.Mvc.Razor\1.0.0\lib\net451\Microsoft.AspNetCore.Mvc.Razor.dll
--reference:C:\Users\nmg\.nuget\packages\Microsoft.AspNetCore.Mvc.Razor.Host\1.0.0\lib\net451\Microsoft.AspNetCore.Mvc.Razor.Host.dll
--reference:C:\Users\nmg\.nuget\packages\Microsoft.AspNetCore.Mvc.TagHelpers\1.0.0\lib\net451\Microsoft.AspNetCore.Mvc.TagHelpers.dll
--reference:C:\Users\nmg\.nuget\packages\Microsoft.AspNetCore.Mvc.ViewFeatures\1.0.0\lib\net451\Microsoft.AspNetCore.Mvc.ViewFeatures.dll
--reference:C:\Users\nmg\.nuget\packages\Microsoft.AspNetCore.Razor\1.0.0\lib\net451\Microsoft.AspNetCore.Razor.dll
--reference:C:\Users\nmg\.nuget\packages\Microsoft.AspNetCore.Razor.Runtime\1.0.0\lib\net451\Microsoft.AspNetCore.Razor.Runtime.dll
--reference:C:\Users\nmg\.nuget\packages\Microsoft.AspNetCore.Routing\1.0.0\lib\net451\Microsoft.AspNetCore.Routing.dll
--reference:C:\Users\nmg\.nuget\packages\Microsoft.AspNetCore.Routing.Abstractions\1.0.0\lib\net451\Microsoft.AspNetCore.Routing.Abstractions.dll
--reference:C:\Users\nmg\.nuget\packages\Microsoft.AspNetCore.Server.IISIntegration\1.0.0\lib\net451\Microsoft.AspNetCore.Server.IISIntegration.dll
--reference:C:\Users\nmg\.nuget\packages\Microsoft.AspNetCore.Server.Kestrel\1.0.0\lib\net451\Microsoft.AspNetCore.Server.Kestrel.dll
--reference:C:\Users\nmg\.nuget\packages\Microsoft.AspNetCore.StaticFiles\1.0.0\lib\net451\Microsoft.AspNetCore.StaticFiles.dll
--reference:C:\Users\nmg\.nuget\packages\Microsoft.AspNetCore.WebUtilities\1.0.0\lib\net451\Microsoft.AspNetCore.WebUtilities.dll
--reference:C:\Users\nmg\.nuget\packages\Microsoft.CodeAnalysis.Common\1.3.0\lib\net45\Microsoft.CodeAnalysis.dll
--reference:C:\Users\nmg\.nuget\packages\Microsoft.CodeAnalysis.CSharp\1.3.0\lib\net45\Microsoft.CodeAnalysis.CSharp.dll
--reference:C:\Program Files (x86)\Reference Assemblies\Microsoft\Framework\.NETFramework\v4.6\Microsoft.CSharp.dll
--reference:C:\Users\nmg\.nuget\packages\Microsoft.DotNet.InternalAbstractions\1.0.0\lib\net451\Microsoft.DotNet.InternalAbstractions.dll
--reference:C:\Users\nmg\.nuget\packages\Microsoft.Extensions.Caching.Abstractions\1.0.0\lib\netstandard1.0\Microsoft.Extensions.Caching.Abstractions.dll
--reference:C:\Users\nmg\.nuget\packages\Microsoft.Extensions.Caching.Memory\1.0.0\lib\net451\Microsoft.Extensions.Caching.Memory.dll
--reference:C:\Users\nmg\.nuget\packages\Microsoft.Extensions.Configuration\1.0.0\lib\netstandard1.1\Microsoft.Extensions.Configuration.dll
--reference:C:\Users\nmg\.nuget\packages\Microsoft.Extensions.Configuration.Abstractions\1.0.0\lib\netstandard1.0\Microsoft.Extensions.Configuration.Abstractions.dll
--reference:C:\Users\nmg\.nuget\packages\Microsoft.Extensions.Configuration.Binder\1.0.0\lib\netstandard1.1\Microsoft.Extensions.Configuration.Binder.dll
--reference:C:\Users\nmg\.nuget\packages\Microsoft.Extensions.Configuration.EnvironmentVariables\1.0.0\lib\net451\Microsoft.Extensions.Configuration.EnvironmentVariables.dll
--reference:C:\Users\nmg\.nuget\packages\Microsoft.Extensions.Configuration.FileExtensions\1.0.0\lib\net451\Microsoft.Extensions.Configuration.FileExtensions.dll
--reference:C:\Users\nmg\.nuget\packages\Microsoft.Extensions.Configuration.Json\1.0.0\lib\net451\Microsoft.Extensions.Configuration.Json.dll
--reference:C:\Users\nmg\.nuget\packages\Microsoft.Extensions.Configuration.UserSecrets\1.0.0\lib\net451\Microsoft.Extensions.Configuration.UserSecrets.dll
--reference:C:\Users\nmg\.nuget\packages\Microsoft.Extensions.DependencyInjection\1.0.0\lib\netstandard1.1\Microsoft.Extensions.DependencyInjection.dll
--reference:C:\Users\nmg\.nuget\packages\Microsoft.Extensions.DependencyInjection.Abstractions\1.0.0\lib\netstandard1.0\Microsoft.Extensions.DependencyInjection.Abstractions.dll
--reference:C:\Users\nmg\.nuget\packages\Microsoft.Extensions.DependencyModel\1.0.0\lib\net451\Microsoft.Extensions.DependencyModel.dll
--reference:C:\Users\nmg\.nuget\packages\Microsoft.Extensions.FileProviders.Abstractions\1.0.0\lib\netstandard1.0\Microsoft.Extensions.FileProviders.Abstractions.dll
--reference:C:\Users\nmg\.nuget\packages\Microsoft.Extensions.FileProviders.Composite\1.0.0\lib\netstandard1.0\Microsoft.Extensions.FileProviders.Composite.dll
--reference:C:\Users\nmg\.nuget\packages\Microsoft.Extensions.FileProviders.Physical\1.0.0\lib\net451\Microsoft.Extensions.FileProviders.Physical.dll
--reference:C:\Users\nmg\.nuget\packages\Microsoft.Extensions.FileSystemGlobbing\1.0.0\lib\net451\Microsoft.Extensions.FileSystemGlobbing.dll
--reference:C:\Users\nmg\.nuget\packages\Microsoft.Extensions.Globalization.CultureInfoCache\1.0.0\lib\netstandard1.1\Microsoft.Extensions.Globalization.CultureInfoCache.dll
--reference:C:\Users\nmg\.nuget\packages\Microsoft.Extensions.Localization\1.0.0\lib\net451\Microsoft.Extensions.Localization.dll
--reference:C:\Users\nmg\.nuget\packages\Microsoft.Extensions.Localization.Abstractions\1.0.0\lib\netstandard1.0\Microsoft.Extensions.Localization.Abstractions.dll
--reference:C:\Users\nmg\.nuget\packages\Microsoft.Extensions.Logging\1.0.0\lib\netstandard1.1\Microsoft.Extensions.Logging.dll
--reference:C:\Users\nmg\.nuget\packages\Microsoft.Extensions.Logging.Abstractions\1.0.0\lib\netstandard1.1\Microsoft.Extensions.Logging.Abstractions.dll
--reference:C:\Users\nmg\.nuget\packages\Microsoft.Extensions.Logging.Console\1.0.0\lib\net451\Microsoft.Extensions.Logging.Console.dll
--reference:C:\Users\nmg\.nuget\packages\Microsoft.Extensions.Logging.Debug\1.0.0\lib\net451\Microsoft.Extensions.Logging.Debug.dll
--reference:C:\Users\nmg\.nuget\packages\Microsoft.Extensions.ObjectPool\1.0.0\lib\net451\Microsoft.Extensions.ObjectPool.dll
--reference:C:\Users\nmg\.nuget\packages\Microsoft.Extensions.Options\1.0.0\lib\netstandard1.0\Microsoft.Extensions.Options.dll
--reference:C:\Users\nmg\.nuget\packages\Microsoft.Extensions.Options.ConfigurationExtensions\1.0.0\lib\netstandard1.1\Microsoft.Extensions.Options.ConfigurationExtensions.dll
--reference:C:\Users\nmg\.nuget\packages\Microsoft.Extensions.PlatformAbstractions\1.0.0\lib\net451\Microsoft.Extensions.PlatformAbstractions.dll
--reference:C:\Users\nmg\.nuget\packages\Microsoft.Extensions.Primitives\1.0.0\lib\netstandard1.0\Microsoft.Extensions.Primitives.dll
--reference:C:\Users\nmg\.nuget\packages\Microsoft.Extensions.WebEncoders\1.0.0\lib\netstandard1.0\Microsoft.Extensions.WebEncoders.dll
--reference:C:\Users\nmg\.nuget\packages\Microsoft.Net.Http.Headers\1.0.0\lib\netstandard1.1\Microsoft.Net.Http.Headers.dll
--reference:C:\Users\nmg\.nuget\packages\Newtonsoft.Json\9.0.1\lib\net45\Newtonsoft.Json.dll
--reference:C:\Users\nmg\.nuget\packages\NLog\4.3.5\lib\net45\NLog.dll
--reference:C:\Users\nmg\.nuget\packages\System.AppContext\4.1.0\ref\net46\System.AppContext.dll
--reference:C:\Users\nmg\.nuget\packages\System.Buffers\4.0.0\lib\netstandard1.1\System.Buffers.dll
--reference:C:\Program Files (x86)\Reference Assemblies\Microsoft\Framework\.NETFramework\v4.6\Facades\System.Collections.dll
--reference:C:\Program Files (x86)\Reference Assemblies\Microsoft\Framework\.NETFramework\v4.6\Facades\System.Collections.Concurrent.dll
--reference:C:\Users\nmg\.nuget\packages\System.Collections.Immutable\1.2.0\lib\portable-net45+win8+wp8+wpa81\System.Collections.Immutable.dll
--reference:C:\Program Files (x86)\Reference Assemblies\Microsoft\Framework\.NETFramework\v4.6\Facades\System.ComponentModel.dll
--reference:C:\Program Files (x86)\Reference Assemblies\Microsoft\Framework\.NETFramework\v4.6\Facades\System.ComponentModel.Annotations.dll
--reference:C:\Users\nmg\.nuget\packages\System.ComponentModel.Primitives\4.1.0\ref\net45\System.ComponentModel.Primitives.dll
--reference:C:\Users\nmg\.nuget\packages\System.ComponentModel.TypeConverter\4.1.0\ref\net45\System.ComponentModel.TypeConverter.dll
--reference:C:\Users\nmg\.nuget\packages\System.Console\4.0.0\ref\net46\System.Console.dll
--reference:C:\Program Files (x86)\Reference Assemblies\Microsoft\Framework\.NETFramework\v4.6\Facades\System.Diagnostics.Contracts.dll
--reference:C:\Program Files (x86)\Reference Assemblies\Microsoft\Framework\.NETFramework\v4.6\Facades\System.Diagnostics.Debug.dll
--reference:C:\Users\nmg\.nuget\packages\System.Diagnostics.DiagnosticSource\4.0.0\lib\net46\System.Diagnostics.DiagnosticSource.dll
--reference:C:\Program Files (x86)\Reference Assemblies\Microsoft\Framework\.NETFramework\v4.6\Facades\System.Diagnostics.Tools.dll
--reference:C:\Program Files (x86)\Reference Assemblies\Microsoft\Framework\.NETFramework\v4.6\Facades\System.Dynamic.Runtime.dll
--reference:C:\Program Files (x86)\Reference Assemblies\Microsoft\Framework\.NETFramework\v4.6\Facades\System.Globalization.dll
--reference:C:\Program Files (x86)\Reference Assemblies\Microsoft\Framework\.NETFramework\v4.6\Facades\System.IO.dll
--reference:C:\Users\nmg\.nuget\packages\System.IO.FileSystem\4.0.1\ref\net46\System.IO.FileSystem.dll
--reference:C:\Users\nmg\.nuget\packages\System.IO.FileSystem.Primitives\4.0.1\ref\net46\System.IO.FileSystem.Primitives.dll
--reference:C:\Program Files (x86)\Reference Assemblies\Microsoft\Framework\.NETFramework\v4.6\Facades\System.Linq.dll
--reference:C:\Program Files (x86)\Reference Assemblies\Microsoft\Framework\.NETFramework\v4.6\Facades\System.Linq.Expressions.dll
--reference:C:\Users\nmg\.nuget\packages\System.Numerics.Vectors\4.1.1\ref\net46\System.Numerics.Vectors.dll
--reference:C:\Program Files (x86)\Reference Assemblies\Microsoft\Framework\.NETFramework\v4.6\Facades\System.Reflection.dll
--reference:C:\Program Files (x86)\Reference Assemblies\Microsoft\Framework\.NETFramework\v4.6\Facades\System.Reflection.Extensions.dll
--reference:C:\Users\nmg\.nuget\packages\System.Reflection.Metadata\1.3.0\lib\portable-net45+win8\System.Reflection.Metadata.dll
--reference:C:\Program Files (x86)\Reference Assemblies\Microsoft\Framework\.NETFramework\v4.6\Facades\System.Reflection.Primitives.dll
--reference:C:\Program Files (x86)\Reference Assemblies\Microsoft\Framework\.NETFramework\v4.6\Facades\System.Resources.ResourceManager.dll
--reference:C:\Program Files (x86)\Reference Assemblies\Microsoft\Framework\.NETFramework\v4.6\Facades\System.Runtime.dll
--reference:C:\Program Files (x86)\Reference Assemblies\Microsoft\Framework\.NETFramework\v4.6\Facades\System.Runtime.Extensions.dll
--reference:C:\Program Files (x86)\Reference Assemblies\Microsoft\Framework\.NETFramework\v4.6\Facades\System.Runtime.Handles.dll
--reference:C:\Program Files (x86)\Reference Assemblies\Microsoft\Framework\.NETFramework\v4.6\Facades\System.Runtime.InteropServices.dll
--reference:C:\Users\nmg\.nuget\packages\System.Runtime.InteropServices.RuntimeInformation\4.0.0\ref\netstandard1.1\System.Runtime.InteropServices.RuntimeInformation.dll
--reference:C:\Program Files (x86)\Reference Assemblies\Microsoft\Framework\.NETFramework\v4.6\Facades\System.Runtime.Numerics.dll
--reference:C:\Users\nmg\.nuget\packages\System.Runtime.Serialization.Primitives\4.1.1\ref\net46\System.Runtime.Serialization.Primitives.dll
--reference:C:\Users\nmg\.nuget\packages\System.Security.Cryptography.Algorithms\4.2.0\ref\net46\System.Security.Cryptography.Algorithms.dll
--reference:C:\Users\nmg\.nuget\packages\System.Security.Cryptography.Encoding\4.0.0\ref\net46\System.Security.Cryptography.Encoding.dll
--reference:C:\Users\nmg\.nuget\packages\System.Security.Cryptography.Primitives\4.0.0\ref\net46\System.Security.Cryptography.Primitives.dll
--reference:C:\Users\nmg\.nuget\packages\System.Security.Cryptography.X509Certificates\4.1.0\ref\net46\System.Security.Cryptography.X509Certificates.dll
--reference:C:\Program Files (x86)\Reference Assemblies\Microsoft\Framework\.NETFramework\v4.6\Facades\System.Text.Encoding.dll
--reference:C:\Program Files (x86)\Reference Assemblies\Microsoft\Framework\.NETFramework\v4.6\Facades\System.Text.Encoding.Extensions.dll
--reference:C:\Users\nmg\.nuget\packages\System.Text.Encodings.Web\4.0.0\lib\netstandard1.0\System.Text.Encodings.Web.dll
--reference:C:\Program Files (x86)\Reference Assemblies\Microsoft\Framework\.NETFramework\v4.6\Facades\System.Threading.dll
--reference:C:\Program Files (x86)\Reference Assemblies\Microsoft\Framework\.NETFramework\v4.6\Facades\System.Threading.Tasks.dll
--reference:C:\Users\nmg\.nuget\packages\System.Threading.Tasks.Extensions\4.0.0\lib\portable-net45+win8+wp8+wpa81\System.Threading.Tasks.Extensions.dll
--reference:C:\Program Files (x86)\Reference Assemblies\Microsoft\Framework\.NETFramework\v4.6\Facades\System.Threading.Tasks.Parallel.dll
--reference:C:\Program Files (x86)\Reference Assemblies\Microsoft\Framework\.NETFramework\v4.6\Facades\System.Xml.ReaderWriter.dll
--reference:C:\Program Files (x86)\Reference Assemblies\Microsoft\Framework\.NETFramework\v4.6\Facades\System.Xml.XDocument.dll
--reference:E:\Projects\RFC\trunk\Src\GraphDiff\bin\Release\net46\GraphDiff.dll
--reference:C:\Program Files (x86)\Reference Assemblies\Microsoft\Framework\.NETFramework\v4.6\System.Drawing.dll
--reference:C:\Program Files (x86)\Reference Assemblies\Microsoft\Framework\.NETFramework\v4.6\mscorlib.dll
--reference:C:\Program Files (x86)\Reference Assemblies\Microsoft\Framework\.NETFramework\v4.6\System.dll
--reference:C:\Program Files (x86)\Reference Assemblies\Microsoft\Framework\.NETFramework\v4.6\System.Core.dll
--reference:C:\Program Files (x86)\Reference Assemblies\Microsoft\Framework\.NETFramework\v4.6\System.Data.dll
--reference:C:\Program Files (x86)\Reference Assemblies\Microsoft\Framework\.NETFramework\v4.6\System.Xml.dll
--reference:C:\Program Files (x86)\Reference Assemblies\Microsoft\Framework\.NETFramework\v4.6\System.Xml.Linq.dll
--reference:C:\Program Files (x86)\Reference Assemblies\Microsoft\Framework\.NETFramework\v4.6\System.Data.Linq.dll
--reference:C:\Program Files (x86)\Reference Assemblies\Microsoft\Framework\.NETFramework\v4.6\System.ComponentModel.DataAnnotations.dll
--reference:C:\Program Files (x86)\Reference Assemblies\Microsoft\Framework\.NETFramework\v4.6\System.Net.Http.dll
--reference:C:\Program Files (x86)\Reference Assemblies\Microsoft\Framework\.NETFramework\v4.6\System.Security.dll
--reference:C:\Program Files (x86)\Reference Assemblies\Microsoft\Framework\.NETFramework\v4.6\System.Numerics.dll
--reference:C:\Program Files (x86)\Reference Assemblies\Microsoft\Framework\.NETFramework\v4.6\System.Runtime.Serialization.dll
--reference:C:\Program Files (x86)\Reference Assemblies\Microsoft\Framework\.NETFramework\v4.6\System.Runtime.Caching.dll
--resource:"E:\Projects\RFC\trunk\Src\Counterparties\obj\Release\net46\Counterpartiesdotnet-compile.deps.json",Counterparties.deps.json
--resource:"E:\Projects\RFC\trunk\Src\Counterparties\Properties\Aspose.Cells.lic",Counterparties.Properties.Aspose.Cells.lic
E:\Projects\RFC\trunk\Src\Counterparties\Program.cs
E:\Projects\RFC\trunk\Src\Counterparties\Startup.cs
E:\Projects\RFC\trunk\Src\Counterparties\Configuration\ConfigurationExtensions.cs
E:\Projects\RFC\trunk\Src\Counterparties\Configuration\IdentitySettings.cs
E:\Projects\RFC\trunk\Src\Counterparties\Configuration\MailSettings.cs
E:\Projects\RFC\trunk\Src\Counterparties\Configuration\Settings.cs
E:\Projects\RFC\trunk\Src\Counterparties\Controllers\ApiController.cs
E:\Projects\RFC\trunk\Src\Counterparties\Controllers\AuthenticationController.cs
E:\Projects\RFC\trunk\Src\Counterparties\Controllers\CounterpartyController.cs
E:\Projects\RFC\trunk\Src\Counterparties\Controllers\DashboardController.cs
E:\Projects\RFC\trunk\Src\Counterparties\Controllers\DerogationController.cs
E:\Projects\RFC\trunk\Src\Counterparties\Controllers\EntityController.cs
E:\Projects\RFC\trunk\Src\Counterparties\Controllers\HomeController.cs
E:\Projects\RFC\trunk\Src\Counterparties\Controllers\IdNamePair.cs
E:\Projects\RFC\trunk\Src\Counterparties\Controllers\LimitController.cs
E:\Projects\RFC\trunk\Src\Counterparties\Controllers\MonitoringController.cs
E:\Projects\RFC\trunk\Src\Counterparties\Controllers\PasswordController.cs
E:\Projects\RFC\trunk\Src\Counterparties\Controllers\RegionController.cs
E:\Projects\RFC\trunk\Src\Counterparties\Controllers\RenaultGradeController.cs
E:\Projects\RFC\trunk\Src\Counterparties\Controllers\TestController.cs
E:\Projects\RFC\trunk\Src\Counterparties\Controllers\UserController.cs
E:\Projects\RFC\trunk\Src\Counterparties\Controllers\UtilizationController.cs
E:\Projects\RFC\trunk\Src\Counterparties\Controllers\UtilizationsUploadController.cs
E:\Projects\RFC\trunk\Src\Counterparties\Controllers\ValidationController.cs
E:\Projects\RFC\trunk\Src\Counterparties\Data\Audit.cs
E:\Projects\RFC\trunk\Src\Counterparties\Data\Database.cs
E:\Projects\RFC\trunk\Src\Counterparties\Data\IChange.cs
E:\Projects\RFC\trunk\Src\Counterparties\Data\ILastChanged.cs
E:\Projects\RFC\trunk\Src\Counterparties\Data\ISoftDelete.cs
E:\Projects\RFC\trunk\Src\Counterparties\Data\RfcDbConfig.cs
E:\Projects\RFC\trunk\Src\Counterparties\Data\RfcDbContext.cs
E:\Projects\RFC\trunk\Src\Counterparties\Data\RowVersionConvention.cs
E:\Projects\RFC\trunk\Src\Counterparties\Data\SqlExceptionExtensions.cs
E:\Projects\RFC\trunk\Src\Counterparties\Data\Identity\RoleStore.cs
E:\Projects\RFC\trunk\Src\Counterparties\Data\Identity\UserStore.cs
E:\Projects\RFC\trunk\Src\Counterparties\Data\OData\FilterParser.cs
E:\Projects\RFC\trunk\Src\Counterparties\Data\OData\ODataSql.cs
E:\Projects\RFC\trunk\Src\Counterparties\Data\Parsers\UtilizationsParser.cs
E:\Projects\RFC\trunk\Src\Counterparties\Data\Validation\BusinessDay.cs
E:\Projects\RFC\trunk\Src\Counterparties\Data\Validation\GreaterThanOrEqual.cs
E:\Projects\RFC\trunk\Src\Counterparties\Data\Validation\LaterThan.cs
E:\Projects\RFC\trunk\Src\Counterparties\Data\Validation\RequiredWhen.cs
E:\Projects\RFC\trunk\Src\Counterparties\Infrastructure\AddHeaderAttribute.cs
E:\Projects\RFC\trunk\Src\Counterparties\Infrastructure\ApplicationBuilderExtensions.cs
E:\Projects\RFC\trunk\Src\Counterparties\Infrastructure\AutoMapperConfig.cs
E:\Projects\RFC\trunk\Src\Counterparties\Infrastructure\DownloadAttribute.cs
E:\Projects\RFC\trunk\Src\Counterparties\Infrastructure\Enumerable.cs
E:\Projects\RFC\trunk\Src\Counterparties\Infrastructure\Excel.cs
E:\Projects\RFC\trunk\Src\Counterparties\Infrastructure\ExcelFilter.cs
E:\Projects\RFC\trunk\Src\Counterparties\Infrastructure\KnownExceptionsFilter.cs
E:\Projects\RFC\trunk\Src\Counterparties\Infrastructure\Mail.cs
E:\Projects\RFC\trunk\Src\Counterparties\Infrastructure\NotNullAttribute.cs
E:\Projects\RFC\trunk\Src\Counterparties\Infrastructure\Json\CounterpartyConverter.cs
E:\Projects\RFC\trunk\Src\Counterparties\Infrastructure\Json\CountriesConverter.cs
E:\Projects\RFC\trunk\Src\Counterparties\Infrastructure\Json\EntitiesConverter.cs
E:\Projects\RFC\trunk\Src\Counterparties\Infrastructure\Security\ClaimPolicyProvider.cs
E:\Projects\RFC\trunk\Src\Counterparties\Infrastructure\Security\Claims.cs
E:\Projects\RFC\trunk\Src\Counterparties\Infrastructure\Security\MemoryCacheTicketStore.cs
E:\Projects\RFC\trunk\Src\Counterparties\Infrastructure\Security\Operations.cs
E:\Projects\RFC\trunk\Src\Counterparties\Infrastructure\Security\PermissionAttribute.cs
E:\Projects\RFC\trunk\Src\Counterparties\Infrastructure\Security\UserGroup.cs
E:\Projects\RFC\trunk\Src\Counterparties\Model\Counterparty.cs
E:\Projects\RFC\trunk\Src\Counterparties\Model\Country.cs
E:\Projects\RFC\trunk\Src\Counterparties\Model\Derogation.cs
E:\Projects\RFC\trunk\Src\Counterparties\Model\Entity.cs
E:\Projects\RFC\trunk\Src\Counterparties\Model\EntityUtilization.cs
E:\Projects\RFC\trunk\Src\Counterparties\Model\Enums.cs
E:\Projects\RFC\trunk\Src\Counterparties\Model\FitchRating.cs
E:\Projects\RFC\trunk\Src\Counterparties\Model\Limit.cs
E:\Projects\RFC\trunk\Src\Counterparties\Model\LoginAudit.cs
E:\Projects\RFC\trunk\Src\Counterparties\Model\MoodysRating.cs
E:\Projects\RFC\trunk\Src\Counterparties\Model\PreviousPassword.cs
E:\Projects\RFC\trunk\Src\Counterparties\Model\Region.cs
E:\Projects\RFC\trunk\Src\Counterparties\Model\RenaultGrade.cs
E:\Projects\RFC\trunk\Src\Counterparties\Model\SPRating.cs
E:\Projects\RFC\trunk\Src\Counterparties\Model\Upload.cs
E:\Projects\RFC\trunk\Src\Counterparties\Model\User.cs
E:\Projects\RFC\trunk\Src\Counterparties\Model\Utilization.cs
E:\Projects\RFC\trunk\Src\Counterparties\Spa\SpaRouteConstraint.cs
E:\Projects\RFC\trunk\Src\Counterparties\Spa\SpaRouteExtensions.cs
